Functions to get components from the data collecting object — get_best • ferrn
…
get_interrupt: extract the end point of the interpolation and the
target point in the iteration when an interruption happens. The optimiser
can find better basis on the interpolation path, an interruption is
implemented to stop further interpolation from the highest point to the
target point. This discrepancy is highlighted in the PCA plot.

get_search_count: summarise the number of search points in each iteration

get_basis_matrix: extract all the bases as a matrix

    Examples

get_search(holes_1d_geo)
#> # A tibble: 363 × 8
#>    basis         index_val info                  method  alpha tries  loop    id
#>    <list>            <dbl> <chr>                 <chr>   <dbl> <dbl> <dbl> <int>
#>  1 <dbl [5 × 1]>     0.749 direction_search      search…    NA     2     1     2
#>  2 <dbl [5 × 1]>     0.749 direction_search      search…    NA     2     1     3
#>  3 <dbl [5 × 1]>     0.749 direction_search      search…    NA     2     1     4
#>  4 <dbl [5 × 1]>     0.749 direction_search      search…    NA     2     1     5
#>  5 <dbl [5 × 1]>     0.749 direction_search      search…    NA     2     1     6
#>  6 <dbl [5 × 1]>     0.749 direction_search      search…    NA     2     1     7
#>  7 <dbl [5 × 1]>     0.749 direction_search      search…    NA     2     1     8
#>  8 <dbl [5 × 1]>     0.749 direction_search      search…    NA     2     1     9
#>  9 <dbl [5 × 1]>     0.749 best_direction_search search…    NA     2     1    10
#> 10 <dbl [5 × 1]>     0.749 direction_search      search…    NA     2     1    11
#> # ℹ 353 more rows

get_anchor(holes_1d_geo)
#> # A tibble: 34 × 8
#>    basis         index_val info             method       alpha tries  loop    id
#>    <list>            <dbl> <chr>            <chr>        <dbl> <dbl> <dbl> <int>
#>  1 <dbl [5 × 1]>     0.749 new_basis        search_geod…   0.5     1     1     1
#>  2 <dbl [5 × 1]>     0.753 best_line_search search_geod…  NA       2     1     2
#>  3 <dbl [5 × 1]>     0.793 best_line_search search_geod…  NA       3     1     3
#>  4 <dbl [5 × 1]>     0.805 best_line_search search_geod…  NA       4     1     4
#>  5 <dbl [5 × 1]>     0.836 best_line_search search_geod…  NA       5     1     5
#>  6 <dbl [5 × 1]>     0.890 best_line_search search_geod…  NA       6     1     6
#>  7 <dbl [5 × 1]>     0.917 best_line_search search_geod…  NA       7     1     7
#>  8 <dbl [5 × 1]>     0.929 best_line_search search_geod…  NA       8     1     8
#>  9 <dbl [5 × 1]>     0.929 best_line_search search_geod…  NA       9     1     9
#> 10 <dbl [5 × 1]>     0.933 best_line_search search_geod…  NA       9     2    10
#> # ℹ 24 more rows
…
res <- holes_1d_geo %>% compute_pca() %>% purrr::pluck("aug")
get_dir_search(res)
#> # A tibble: 330 × 16
#>    basis    index_val info   method alpha tries  loop    id row_num   PC1    PC2
#>    <list>       <dbl> <chr>  <chr>  <dbl> <dbl> <dbl> <dbl>   <int> <dbl>  <dbl>
#>  1 <dbl[…]>     0.749 direc… PD        NA     2     1     2       2 -1.93 -0.494
#>  2 <dbl[…]>     0.749 direc… PD        NA     2     1     3       3 -1.81 -0.515
#>  3 <dbl[…]>     0.749 direc… PD        NA     2     1     4       4 -1.78 -0.507
#>  4 <dbl[…]>     0.749 direc… PD        NA     2     1     5       5 -1.96 -0.501
#>  5 <dbl[…]>     0.749 direc… PD        NA     2     1     6       6 -1.75 -0.555
#>  6 <dbl[…]>     0.749 direc… PD        NA     2     1     7       7 -1.99 -0.454
#>  7 <dbl[…]>     0.749 direc… PD        NA     2     1     8       8 -1.87 -0.402
#>  8 <dbl[…]>     0.749 direc… PD        NA     2     1     9       9 -1.86 -0.606
#>  9 <dbl[…]>     0.749 best_… PD        NA     2     1    10      10 -1.98 -0.478
#> 10 <dbl[…]>     0.749 direc… PD        NA     2     1    11      11 -1.75 -0.530
#> # ℹ 320 more rows
#> # ℹ 5 more variables: PC3 <dbl>, PC4 <dbl>, PC5 <dbl>, anchor_x <dbl>,
#> #   anchor_y <dbl>
…
