…
$pca_summary
Standard deviations (1, .., p=5):
[1] 1.0433992 1.0155630 0.9888052 0.9850722 0.9653222

Rotation (n x k) = (5 x 5):
          PC1        PC2        PC3        PC4        PC5
V1  0.5494898 -0.2012644  0.5927758 0.12915854 -0.5380414
V2 -0.3674142  0.5045363  0.1443116 0.73291782 -0.2290317
V3 -0.4473056 -0.4083083  0.6605713 0.06397122  0.4390390
V4  0.1028552 -0.6665882 -0.4230460 0.60415355  0.0333405
V5  0.5936381  0.3063988  0.1116634 0.27758911  0.6813143

$aug
# A tibble: 2,995 x 14
   basis   index_val info    method alpha tries  loop    id row_num   PC1    PC2
   <list>      <dbl> <chr>   <chr>  <dbl> <dbl> <dbl> <dbl>   <int> <dbl>  <dbl>
 1 <dbl[,…     0.749 new_ba… PD       0.5     1     1     1       1 -1.83 -0.617
 2 <dbl[,…     0.749 direct… PD      NA       2     1     2       2 -1.84 -0.628
 3 <dbl[,…     0.749 direct… PD      NA       2     1     3       3 -1.83 -0.606
 4 <dbl[,…     0.749 direct… PD      NA       2     1     4       4 -1.83 -0.607
 5 <dbl[,…     0.749 direct… PD      NA       2     1     5       5 -1.83 -0.627
 6 <dbl[,…     0.749 direct… PD      NA       2     1     6       6 -1.83 -0.596
 7 <dbl[,…     0.749 direct… PD      NA       2     1     7       7 -1.83 -0.637
 8 <dbl[,…     0.749 direct… PD      NA       2     1     8       8 -1.82 -0.627
 9 <dbl[,…     0.749 direct… PD      NA       2     1     9       9 -1.84 -0.607
10 <dbl[,…     0.749 best_d… PD      NA       2     1    10      10 -1.83 -0.635
# … with 2,985 more rows, and 3 more variables: PC3 <dbl>, PC4 <dbl>, PC5 <dbl>
…
> ### Aliases: get_anchor
> 
> ### ** Examples
> 
> holes_1d_better %>% get_anchor()
# A tibble: 5 x 8
  basis             index_val info      method        alpha tries  loop    id
  <list>                <dbl> <chr>     <chr>         <dbl> <dbl> <dbl> <int>
1 <dbl[,1] [5 × 1]>     0.749 new_basis search_better 0.5       1     1     1
2 <dbl[,1] [5 × 1]>     0.752 new_basis search_better 0.5       2     6     2
3 <dbl[,1] [5 × 1]>     0.798 new_basis search_better 0.495     3     1     3
4 <dbl[,1] [5 × 1]>     0.813 new_basis search_better 0.49      4     7     4
5 <dbl[,1] [5 × 1]>     0.904 new_basis search_better 0.485     5     3     5
> holes_1d_geo %>% get_anchor()
# A tibble: 34 x 8
   basis           index_val info          method        alpha tries  loop    id
   <list>              <dbl> <chr>         <chr>         <dbl> <dbl> <dbl> <int>
 1 <dbl[,1] [5 × …     0.749 new_basis     search_geode…   0.5     1     1     1
 2 <dbl[,1] [5 × …     0.753 best_line_se… search_geode…  NA       2     1     2
 3 <dbl[,1] [5 × …     0.793 best_line_se… search_geode…  NA       3     1     3
 4 <dbl[,1] [5 × …     0.805 best_line_se… search_geode…  NA       4     1     4
 5 <dbl[,1] [5 × …     0.836 best_line_se… search_geode…  NA       5     1     5
 6 <dbl[,1] [5 × …     0.890 best_line_se… search_geode…  NA       6     1     6
 7 <dbl[,1] [5 × …     0.917 best_line_se… search_geode…  NA       7     1     7
 8 <dbl[,1] [5 × …     0.929 best_line_se… search_geode…  NA       8     1     8
 9 <dbl[,1] [5 × …     0.929 best_line_se… search_geode…  NA       9     1     9
10 <dbl[,1] [5 × …     0.933 best_line_se… search_geode…  NA       9     2    10
# … with 24 more rows
…
> ### * get_dir_search
> 
> flush(stderr()); flush(stdout())
> 
> ### Name: get_dir_search
> ### Title: Extract directional search points during the optimisation
> ### Aliases: get_dir_search
> 
> ### ** Examples
> 
> holes_1d_geo %>%
+   compute_pca() %>%
+   purrr::pluck("aug") %>%
+   get_dir_search()
# A tibble: 330 x 16
   basis   index_val info    method alpha tries  loop    id row_num   PC1    PC2
   <list>      <dbl> <chr>   <chr>  <dbl> <dbl> <dbl> <dbl>   <int> <dbl>  <dbl>
 1 <dbl[,…     0.749 direct… PD        NA     2     1     2       2 -1.80 -0.776
 2 <dbl[,…     0.749 direct… PD        NA     2     1     3       3 -1.77 -0.601
 3 <dbl[,…     0.749 direct… PD        NA     2     1     4       4 -1.79 -0.632
 4 <dbl[,…     0.749 direct… PD        NA     2     1     5       5 -1.78 -0.745
 5 <dbl[,…     0.749 direct… PD        NA     2     1     6       6 -1.80 -0.562
 6 <dbl[,…     0.749 direct… PD        NA     2     1     7       7 -1.77 -0.815
 7 <dbl[,…     0.749 direct… PD        NA     2     1     8       8 -1.73 -0.732
 8 <dbl[,…     0.749 direct… PD        NA     2     1     9       9 -1.84 -0.644
 9 <dbl[,…     0.749 best_d… PD        NA     2     1    10      10 -1.78 -0.804
10 <dbl[,…     0.749 direct… PD        NA     2     1    11      11 -1.79 -0.573
# … with 320 more rows, and 5 more variables: PC3 <dbl>, PC4 <dbl>, PC5 <dbl>,
#   anchor_x <dbl>, anchor_y <dbl>
…
> 
> cleanEx()
> nameEx("get_search")
> ### * get_search
> 
> flush(stderr()); flush(stdout())
> 
> ### Name: get_search
> ### Title: Extract search points during the optimisation
> ### Aliases: get_search
> 
> ### ** Examples
> 
> holes_1d_better %>% get_search()
# A tibble: 37 x 8
   basis             index_val info         method       alpha tries  loop    id
   <list>                <dbl> <chr>        <chr>        <dbl> <dbl> <dbl> <int>
 1 <dbl[,1] [5 × 1]>     0.730 random_sear… search_bett…  0.5      2     1     2
 2 <dbl[,1] [5 × 1]>     0.743 random_sear… search_bett…  0.5      2     2     3
 3 <dbl[,1] [5 × 1]>     0.736 random_sear… search_bett…  0.5      2     3     4
 4 <dbl[,1] [5 × 1]>     0.747 random_sear… search_bett…  0.5      2     4     5
 5 <dbl[,1] [5 × 1]>     0.725 random_sear… search_bett…  0.5      2     5     6
 6 <dbl[,1] [5 × 1]>     0.769 random_sear… search_bett…  0.49     4     1    33
 7 <dbl[,1] [5 × 1]>     0.754 random_sear… search_bett…  0.49     4     2    34
 8 <dbl[,1] [5 × 1]>     0.725 random_sear… search_bett…  0.49     4     3    35
 9 <dbl[,1] [5 × 1]>     0.766 random_sear… search_bett…  0.49     4     4    36
10 <dbl[,1] [5 × 1]>     0.736 random_sear… search_bett…  0.49     4     5    37
# … with 27 more rows
> holes_1d_geo %>% get_search()
# A tibble: 363 x 8
   basis          index_val info            method       alpha tries  loop    id
   <list>             <dbl> <chr>           <chr>        <dbl> <dbl> <dbl> <int>
 1 <dbl[,1] [5 ×…     0.749 direction_sear… search_geod…    NA     2     1     2
 2 <dbl[,1] [5 ×…     0.749 direction_sear… search_geod…    NA     2     1     3
 3 <dbl[,1] [5 ×…     0.749 direction_sear… search_geod…    NA     2     1     4
 4 <dbl[,1] [5 ×…     0.749 direction_sear… search_geod…    NA     2     1     5
 5 <dbl[,1] [5 ×…     0.749 direction_sear… search_geod…    NA     2     1     6
 6 <dbl[,1] [5 ×…     0.749 direction_sear… search_geod…    NA     2     1     7
 7 <dbl[,1] [5 ×…     0.749 direction_sear… search_geod…    NA     2     1     8
 8 <dbl[,1] [5 ×…     0.749 direction_sear… search_geod…    NA     2     1     9
 9 <dbl[,1] [5 ×…     0.749 best_direction… search_geod…    NA     2     1    10
10 <dbl[,1] [5 ×…     0.749 direction_sear… search_geod…    NA     2     1    11
# … with 353 more rows
…
