Flip the sign of a group of bases — flip_sign • ferrn
…
#> [518,] -0.5837540442  0.45742425  1.825436e-01 -0.6421227194 -0.065958545
#> [519,] -0.3016186270  0.89976437  1.550154e-01 -0.0132590457  0.274307659
#> [520,] -0.1019447978  0.69163684 -1.677674e-01  0.6576482255  0.224941441
#> [521,] -0.3265397072  0.68824476  5.361298e-01  0.2118324954  0.295605786
#> [522,]  0.6308744721  0.39504801 -3.986774e-01 -0.2466388006  0.475562923
#> [523,] -0.6444495734  0.63264163  3.965137e-01  0.1472234535 -0.074507969
#> [524,]  0.2276934292  0.90755709 -1.730098e-02 -0.1646844562 -0.311569483
#> [525,] -0.3077582205  0.66539709  1.569924e-01  0.2741682067  0.602259719
#> [526,]  0.4420953896  0.42774572  2.213452e-01  0.2262441477  0.722083893
#> 
#> $flip
#> [1] TRUE
#> 
#> $dt
#> # A tibble: 526 x 8
#>    basis          index_val tries info             loop method       alpha    id
#>    <list>             <dbl> <dbl> <chr>           <dbl> <chr>        <dbl> <int>
#>  1 <dbl[,1] [5 ×…     0.749     1 new_basis           1 search_geod…   0.5     1
#>  2 <dbl[,1] [5 ×…     0.749     2 direction_sear…     1 search_geod…  NA       2
#>  3 <dbl[,1] [5 ×…     0.749     2 direction_sear…     1 search_geod…  NA       3
#>  4 <dbl[,1] [5 ×…     0.749     2 direction_sear…     1 search_geod…  NA       4
#>  5 <dbl[,1] [5 ×…     0.749     2 direction_sear…     1 search_geod…  NA       5
#>  6 <dbl[,1] [5 ×…     0.749     2 direction_sear…     1 search_geod…  NA       6
#>  7 <dbl[,1] [5 ×…     0.749     2 direction_sear…     1 search_geod…  NA       7
#>  8 <dbl[,1] [5 ×…     0.749     2 direction_sear…     1 search_geod…  NA       8
#>  9 <dbl[,1] [5 ×…     0.749     2 direction_sear…     1 search_geod…  NA       9
#> 10 <dbl[,1] [5 ×…     0.749     2 best_direction…     1 search_geod…  NA      10
#> # … with 516 more rows
…
